{
  "qui": [
    {
      "latin": "qui",
      "parts": [
        {
          "number": "s",
          "gender": "m",
          "case": "nom"
        },
        {
          "number": "p",
          "gender": "m",
          "case": "nom"
        }
      ]
    },
    {
      "latin": "quae",
      "parts": [
        {
          "number": "s",
          "gender": "f",
          "case": "nom"
        },
        {
          "number": "p",
          "gender": "f",
          "case": "nom"
        },
        {
          "number": "p",
          "gender": "n",
          "case": "nom"
        },
        {
          "number": "p",
          "gender": "n",
          "case": "acc"
        }
      ]
    },
    {
      "latin": "quod",
      "parts": [
        {
          "number": "s",
          "gender": "n",
          "case": "nom"
        },
        {
          "number": "s",
          "gender": "n",
          "case": "acc"
        }
      ]
    },
    {
      "latin": "quem",
      "parts": [
        {
          "number": "s",
          "gender": "m",
          "case": "acc"
        }
      ]
    },
    {
      "latin": "quam",
      "parts": [
        {
          "number": "s",
          "gender": "f",
          "case": "acc"
        }
      ]
    },
    {
      "latin": "cuius",
      "parts": [
        {
          "number": "s",
          "gender": "m",
          "case": "gen"
        },
        {
          "number": "s",
          "gender": "f",
          "case": "gen"
        },
        {
          "number": "s",
          "gender": "n",
          "case": "gen"
        }
      ]
    },
    {
      "latin": "cui",
      "parts": [
        {
          "number": "s",
          "gender": "m",
          "case": "dat"
        },
        {
          "number": "s",
          "gender": "f",
          "case": "dat"
        },
        {
          "number": "s",
          "gender": "n",
          "case": "dat"
        }
      ]
    },
    {
      "latin": "quo",
      "parts": [
        {
          "number": "s",
          "gender": "m",
          "case": "abl"
        },
        {
          "number": "s",
          "gender": "n",
          "case": "abl"
        }
      ]
    },
    {
      "latin": "qua",
      "parts": [
        {
          "number": "s",
          "gender": "f",
          "case": "abl"
        }
      ]
    },
    {
      "latin": "quos",
      "parts": [
        {
          "number": "p",
          "gender": "m",
          "case": "acc"
        }
      ]
    },
    {
      "latin": "quas",
      "parts": [
        {
          "number": "p",
          "gender": "f",
          "case": "acc"
        }
      ]
    },
    {
      "latin": "quorum",
      "parts": [
        {
          "number": "p",
          "gender": "m",
          "case": "gen"
        },
        {
          "number": "p",
          "gender": "n",
          "case": "gen"
        }
      ]
    },
    {
      "latin": "quarum",
      "parts": [
        {
          "number": "p",
          "gender": "f",
          "case": "gen"
        }
      ]
    },
    {
      "latin": "quibus",
      "parts": [
        {
          "number": "p",
          "gender": "m",
          "case": "dat"
        },
        {
          "number": "p",
          "gender": "f",
          "case": "dat"
        },
        {
          "number": "p",
          "gender": "n",
          "case": "dat"
        },
        {
          "number": "p",
          "gender": "m",
          "case": "abl"
        },
        {
          "number": "p",
          "gender": "f",
          "case": "abl"
        },
        {
          "number": "p",
          "gender": "n",
          "case": "abl"
        }
      ]
    }
  ],
  "ego": [
    {
      "latin": "ego",
      "parts": [
        {
          "number": "s",
          "gender": "m",
          "case": "nom"
        }
      ]
    },
    {
      "latin": "tu",
      "parts": [
        {
          "number": "s",
          "gender": "f",
          "case": "nom"
        }
      ]
    },
    {
      "latin": "me",
      "parts": [
        {
          "number": "s",
          "gender": "m",
          "case": "acc"
        },
        {
          "number": "s",
          "gender": "m",
          "case": "abl"
        }
      ]
    },
    {
      "latin": "te",
      "parts": [
        {
          "number": "s",
          "gender": "f",
          "case": "acc"
        },
        {
          "number": "s",
          "gender": "f",
          "case": "abl"
        }
      ]
    },
    {
      "latin": "se",
      "parts": [
        {
          "number": "s",
          "gender": "n",
          "case": "acc"
        },
        {
          "number": "s",
          "gender": "n",
          "case": "abl"
        },
        {
          "number": "p",
          "gender": "n",
          "case": "acc"
        },
        {
          "number": "p",
          "gender": "n",
          "case": "abl"
        }
      ]
    },
    {
      "latin": "mei",
      "parts": [
        {
          "number": "s",
          "gender": "m",
          "case": "gen"
        }
      ]
    },
    {
      "latin": "tui",
      "parts": [
        {
          "number": "s",
          "gender": "f",
          "case": "gen"
        }
      ]
    },
    {
      "latin": "sui",
      "parts": [
        {
          "number": "s",
          "gender": "n",
          "case": "gen"
        },
        {
          "number": "p",
          "gender": "n",
          "case": "gen"
        }
      ]
    },
    {
      "latin": "mihi",
      "parts": [
        {
          "number": "s",
          "gender": "m",
          "case": "dat"
        }
      ]
    },
    {
      "latin": "tibi",
      "parts": [
        {
          "number": "s",
          "gender": "f",
          "case": "dat"
        }
      ]
    },
    {
      "latin": "sibi",
      "parts": [
        {
          "number": "s",
          "gender": "n",
          "case": "dat"
        },
        {
          "number": "p",
          "gender": "n",
          "case": "dat"
        }
      ]
    },
    {
      "latin": "nos",
      "parts": [
        {
          "number": "p",
          "gender": "m",
          "case": "nom"
        },
        {
          "number": "p",
          "gender": "m",
          "case": "acc"
        }
      ]
    },
    {
      "latin": "vos",
      "parts": [
        {
          "number": "p",
          "gender": "f",
          "case": "nom"
        },
        {
          "number": "p",
          "gender": "f",
          "case": "acc"
        }
      ]
    },
    {
      "latin": "nostrum",
      "parts": [
        {
          "number": "p",
          "gender": "m",
          "case": "gen"
        }
      ]
    },
    {
      "latin": "vestrum",
      "parts": [
        {
          "number": "p",
          "gender": "f",
          "case": "gen"
        }
      ]
    },
    {
      "latin": "nobis",
      "parts": [
        {
          "number": "p",
          "gender": "m",
          "case": "dat"
        },
        {
          "number": "p",
          "gender": "m",
          "case": "abl"
        }
      ]
    },
    {
      "latin": "vobis",
      "parts": [
        {
          "number": "p",
          "gender": "f",
          "case": "dat"
        },
        {
          "number": "p",
          "gender": "f",
          "case": "abl"
        }
      ]
    }
  ],
  "is": [
    {
      "latin": "is",
      "parts": [
        {
          "number": "s",
          "gender": "m",
          "case": "nom"
        }
      ]
    },
    {
      "latin": "ea",
      "parts": [
        {
          "number": "s",
          "gender": "f",
          "case": "nom"
        },
        {
          "number": "s",
          "gender": "f",
          "case": "abl"
        },
        {
          "number": "p",
          "gender": "n",
          "case": "nom"
        },
        {
          "number": "p",
          "gender": "n",
          "case": "acc"
        }
      ]
    },
    {
      "latin": "id",
      "parts": [
        {
          "number": "s",
          "gender": "n",
          "case": "nom"
        },
        {
          "number": "s",
          "gender": "n",
          "case": "acc"
        }
      ]
    },
    {
      "latin": "eum",
      "parts": [
        {
          "number": "s",
          "gender": "m",
          "case": "acc"
        }
      ]
    },
    {
      "latin": "eam",
      "parts": [
        {
          "number": "s",
          "gender": "f",
          "case": "acc"
        }
      ]
    },
    {
      "latin": "eius",
      "parts": [
        {
          "number": "s",
          "gender": "m",
          "case": "gen"
        },
        {
          "number": "s",
          "gender": "f",
          "case": "gen"
        },
        {
          "number": "s",
          "gender": "n",
          "case": "gen"
        }
      ]
    },
    {
      "latin": "ei",
      "parts": [
        {
          "number": "s",
          "gender": "m",
          "case": "dat"
        },
        {
          "number": "s",
          "gender": "f",
          "case": "dat"
        },
        {
          "number": "s",
          "gender": "n",
          "case": "dat"
        },
        {
          "number": "p",
          "gender": "m",
          "case": "nom"
        }
      ]
    },
    {
      "latin": "eo",
      "parts": [
        {
          "number": "s",
          "gender": "m",
          "case": "abl"
        },
        {
          "number": "s",
          "gender": "n",
          "case": "abl"
        }
      ]
    },
    {
      "latin": "eae",
      "parts": [
        {
          "number": "p",
          "gender": "f",
          "case": "nom"
        }
      ]
    },
    {
      "latin": "eos",
      "parts": [
        {
          "number": "p",
          "gender": "m",
          "case": "acc"
        }
      ]
    },
    {
      "latin": "eas",
      "parts": [
        {
          "number": "p",
          "gender": "f",
          "case": "acc"
        }
      ]
    },
    {
      "latin": "eorum",
      "parts": [
        {
          "number": "p",
          "gender": "m",
          "case": "gen"
        },
        {
          "number": "p",
          "gender": "n",
          "case": "gen"
        }
      ]
    },
    {
      "latin": "earum",
      "parts": [
        {
          "number": "p",
          "gender": "f",
          "case": "gen"
        }
      ]
    },
    {
      "latin": "eis",
      "parts": [
        {
          "number": "p",
          "gender": "m",
          "case": "dat"
        },
        {
          "number": "p",
          "gender": "f",
          "case": "dat"
        },
        {
          "number": "p",
          "gender": "n",
          "case": "dat"
        },
        {
          "number": "p",
          "gender": "m",
          "case": "abl"
        },
        {
          "number": "p",
          "gender": "f",
          "case": "abl"
        },
        {
          "number": "p",
          "gender": "n",
          "case": "abl"
        }
      ]
    }
  ],
  "hic": [
    {
      "latin": "hic",
      "parts": [
        {
          "number": "s",
          "gender": "m",
          "case": "nom"
        }
      ]
    },
    {
      "latin": "haec",
      "parts": [
        {
          "number": "s",
          "gender": "f",
          "case": "nom"
        },
        {
          "number": "p",
          "gender": "n",
          "case": "nom"
        },
        {
          "number": "p",
          "gender": "n",
          "case": "acc"
        }
      ]
    },
    {
      "latin": "hoc",
      "parts": [
        {
          "number": "s",
          "gender": "n",
          "case": "nom"
        },
        {
          "number": "s",
          "gender": "n",
          "case": "acc"
        },
        {
          "number": "s",
          "gender": "m",
          "case": "abl"
        },
        {
          "number": "s",
          "gender": "n",
          "case": "abl"
        }
      ]
    },
    {
      "latin": "hunc",
      "parts": [
        {
          "number": "s",
          "gender": "m",
          "case": "acc"
        }
      ]
    },
    {
      "latin": "hanc",
      "parts": [
        {
          "number": "s",
          "gender": "f",
          "case": "acc"
        }
      ]
    },
    {
      "latin": "huius",
      "parts": [
        {
          "number": "s",
          "gender": "m",
          "case": "gen"
        },
        {
          "number": "s",
          "gender": "f",
          "case": "gen"
        },
        {
          "number": "s",
          "gender": "n",
          "case": "gen"
        }
      ]
    },
    {
      "latin": "huic",
      "parts": [
        {
          "number": "s",
          "gender": "m",
          "case": "dat"
        },
        {
          "number": "s",
          "gender": "f",
          "case": "dat"
        },
        {
          "number": "s",
          "gender": "n",
          "case": "dat"
        }
      ]
    },
    {
      "latin": "hac",
      "parts": [
        {
          "number": "s",
          "gender": "f",
          "case": "abl"
        }
      ]
    },
    {
      "latin": "hi",
      "parts": [
        {
          "number": "p",
          "gender": "m",
          "case": "nom"
        }
      ]
    },
    {
      "latin": "hae",
      "parts": [
        {
          "number": "p",
          "gender": "f",
          "case": "nom"
        }
      ]
    },
    {
      "latin": "hos",
      "parts": [
        {
          "number": "p",
          "gender": "m",
          "case": "acc"
        }
      ]
    },
    {
      "latin": "has",
      "parts": [
        {
          "number": "p",
          "gender": "f",
          "case": "acc"
        }
      ]
    },
    {
      "latin": "horum",
      "parts": [
        {
          "number": "p",
          "gender": "m",
          "case": "gen"
        },
        {
          "number": "p",
          "gender": "n",
          "case": "gen"
        }
      ]
    },
    {
      "latin": "harum",
      "parts": [
        {
          "number": "p",
          "gender": "f",
          "case": "gen"
        }
      ]
    },
    {
      "latin": "his",
      "parts": [
        {
          "number": "p",
          "gender": "m",
          "case": "dat"
        },
        {
          "number": "p",
          "gender": "f",
          "case": "dat"
        },
        {
          "number": "p",
          "gender": "n",
          "case": "dat"
        },
        {
          "number": "p",
          "gender": "m",
          "case": "abl"
        },
        {
          "number": "p",
          "gender": "f",
          "case": "abl"
        },
        {
          "number": "p",
          "gender": "n",
          "case": "abl"
        }
      ]
    }
  ],
  "ille": [
    {
      "latin": "ille",
      "parts": [
        {
          "number": "s",
          "gender": "m",
          "case": "nom"
        }
      ]
    },
    {
      "latin": "illa",
      "parts": [
        {
          "number": "s",
          "gender": "f",
          "case": "nom"
        },
        {
          "number": "s",
          "gender": "f",
          "case": "abl"
        },
        {
          "number": "p",
          "gender": "n",
          "case": "nom"
        },
        {
          "number": "p",
          "gender": "n",
          "case": "acc"
        }
      ]
    },
    {
      "latin": "illud",
      "parts": [
        {
          "number": "s",
          "gender": "n",
          "case": "nom"
        },
        {
          "number": "s",
          "gender": "n",
          "case": "acc"
        }
      ]
    },
    {
      "latin": "illum",
      "parts": [
        {
          "number": "s",
          "gender": "m",
          "case": "acc"
        }
      ]
    },
    {
      "latin": "illam",
      "parts": [
        {
          "number": "s",
          "gender": "f",
          "case": "acc"
        }
      ]
    },
    {
      "latin": "illius",
      "parts": [
        {
          "number": "s",
          "gender": "m",
          "case": "gen"
        },
        {
          "number": "s",
          "gender": "f",
          "case": "gen"
        },
        {
          "number": "s",
          "gender": "n",
          "case": "gen"
        }
      ]
    },
    {
      "latin": "illi",
      "parts": [
        {
          "number": "s",
          "gender": "m",
          "case": "dat"
        },
        {
          "number": "s",
          "gender": "f",
          "case": "dat"
        },
        {
          "number": "s",
          "gender": "n",
          "case": "dat"
        },
        {
          "number": "p",
          "gender": "m",
          "case": "nom"
        }
      ]
    },
    {
      "latin": "illo",
      "parts": [
        {
          "number": "s",
          "gender": "m",
          "case": "abl"
        },
        {
          "number": "s",
          "gender": "n",
          "case": "abl"
        }
      ]
    },
    {
      "latin": "illae",
      "parts": [
        {
          "number": "p",
          "gender": "f",
          "case": "nom"
        }
      ]
    },
    {
      "latin": "illos",
      "parts": [
        {
          "number": "p",
          "gender": "m",
          "case": "acc"
        }
      ]
    },
    {
      "latin": "illas",
      "parts": [
        {
          "number": "p",
          "gender": "f",
          "case": "acc"
        }
      ]
    },
    {
      "latin": "illorum",
      "parts": [
        {
          "number": "p",
          "gender": "m",
          "case": "gen"
        },
        {
          "number": "p",
          "gender": "n",
          "case": "gen"
        }
      ]
    },
    {
      "latin": "illarum",
      "parts": [
        {
          "number": "p",
          "gender": "f",
          "case": "gen"
        }
      ]
    },
    {
      "latin": "illis",
      "parts": [
        {
          "number": "p",
          "gender": "m",
          "case": "dat"
        },
        {
          "number": "p",
          "gender": "f",
          "case": "dat"
        },
        {
          "number": "p",
          "gender": "n",
          "case": "dat"
        },
        {
          "number": "p",
          "gender": "m",
          "case": "abl"
        },
        {
          "number": "p",
          "gender": "f",
          "case": "abl"
        },
        {
          "number": "p",
          "gender": "n",
          "case": "abl"
        }
      ]
    }
  ],
  "ipse": [
    {
      "latin": "ipse",
      "parts": [
        {
          "number": "s",
          "gender": "m",
          "case": "nom"
        }
      ]
    },
    {
      "latin": "ipsa",
      "parts": [
        {
          "number": "s",
          "gender": "f",
          "case": "nom"
        },
        {
          "number": "s",
          "gender": "f",
          "case": "abl"
        },
        {
          "number": "p",
          "gender": "n",
          "case": "nom"
        },
        {
          "number": "p",
          "gender": "n",
          "case": "acc"
        }
      ]
    },
    {
      "latin": "ipsum",
      "parts": [
        {
          "number": "s",
          "gender": "n",
          "case": "nom"
        },
        {
          "number": "s",
          "gender": "m",
          "case": "acc"
        },
        {
          "number": "s",
          "gender": "n",
          "case": "acc"
        }
      ]
    },
    {
      "latin": "ipsam",
      "parts": [
        {
          "number": "s",
          "gender": "f",
          "case": "acc"
        }
      ]
    },
    {
      "latin": "ipsius",
      "parts": [
        {
          "number": "s",
          "gender": "m",
          "case": "gen"
        },
        {
          "number": "s",
          "gender": "f",
          "case": "gen"
        },
        {
          "number": "s",
          "gender": "n",
          "case": "gen"
        }
      ]
    },
    {
      "latin": "ipsi",
      "parts": [
        {
          "number": "s",
          "gender": "m",
          "case": "dat"
        },
        {
          "number": "s",
          "gender": "f",
          "case": "dat"
        },
        {
          "number": "s",
          "gender": "n",
          "case": "dat"
        },
        {
          "number": "p",
          "gender": "m",
          "case": "nom"
        }
      ]
    },
    {
      "latin": "ipso",
      "parts": [
        {
          "number": "s",
          "gender": "m",
          "case": "abl"
        },
        {
          "number": "s",
          "gender": "n",
          "case": "abl"
        }
      ]
    },
    {
      "latin": "ipsae",
      "parts": [
        {
          "number": "p",
          "gender": "f",
          "case": "nom"
        }
      ]
    },
    {
      "latin": "ipsos",
      "parts": [
        {
          "number": "p",
          "gender": "m",
          "case": "acc"
        }
      ]
    },
    {
      "latin": "ipsas",
      "parts": [
        {
          "number": "p",
          "gender": "f",
          "case": "acc"
        }
      ]
    },
    {
      "latin": "ipsorum",
      "parts": [
        {
          "number": "p",
          "gender": "m",
          "case": "gen"
        },
        {
          "number": "p",
          "gender": "n",
          "case": "gen"
        }
      ]
    },
    {
      "latin": "ipsarum",
      "parts": [
        {
          "number": "p",
          "gender": "f",
          "case": "gen"
        }
      ]
    },
    {
      "latin": "ipsis",
      "parts": [
        {
          "number": "p",
          "gender": "m",
          "case": "dat"
        },
        {
          "number": "p",
          "gender": "f",
          "case": "dat"
        },
        {
          "number": "p",
          "gender": "n",
          "case": "dat"
        },
        {
          "number": "p",
          "gender": "m",
          "case": "abl"
        },
        {
          "number": "p",
          "gender": "f",
          "case": "abl"
        },
        {
          "number": "p",
          "gender": "n",
          "case": "abl"
        }
      ]
    }
  ],
  "idem": [
    {
      "latin": "idem",
      "parts": [
        {
          "number": "s",
          "gender": "m",
          "case": "nom"
        },
        {
          "number": "s",
          "gender": "n",
          "case": "nom"
        },
        {
          "number": "s",
          "gender": "n",
          "case": "acc"
        }
      ]
    },
    {
      "latin": "eadem",
      "parts": [
        {
          "number": "s",
          "gender": "f",
          "case": "nom"
        },
        {
          "number": "s",
          "gender": "f",
          "case": "abl"
        },
        {
          "number": "p",
          "gender": "n",
          "case": "nom"
        },
        {
          "number": "p",
          "gender": "n",
          "case": "acc"
        }
      ]
    },
    {
      "latin": "eundem",
      "parts": [
        {
          "number": "s",
          "gender": "m",
          "case": "acc"
        }
      ]
    },
    {
      "latin": "eandem",
      "parts": [
        {
          "number": "s",
          "gender": "f",
          "case": "acc"
        }
      ]
    },
    {
      "latin": "eiusdem",
      "parts": [
        {
          "number": "s",
          "gender": "m",
          "case": "gen"
        },
        {
          "number": "s",
          "gender": "f",
          "case": "gen"
        },
        {
          "number": "s",
          "gender": "n",
          "case": "gen"
        }
      ]
    },
    {
      "latin": "eidem",
      "parts": [
        {
          "number": "s",
          "gender": "m",
          "case": "dat"
        },
        {
          "number": "s",
          "gender": "f",
          "case": "dat"
        },
        {
          "number": "s",
          "gender": "n",
          "case": "dat"
        },
        {
          "number": "p",
          "gender": "m",
          "case": "nom"
        }
      ]
    },
    {
      "latin": "eodem",
      "parts": [
        {
          "number": "s",
          "gender": "m",
          "case": "abl"
        },
        {
          "number": "s",
          "gender": "n",
          "case": "abl"
        }
      ]
    },
    {
      "latin": "eaedem",
      "parts": [
        {
          "number": "p",
          "gender": "f",
          "case": "nom"
        }
      ]
    },
    {
      "latin": "eosdem",
      "parts": [
        {
          "number": "p",
          "gender": "m",
          "case": "acc"
        }
      ]
    },
    {
      "latin": "easdem",
      "parts": [
        {
          "number": "p",
          "gender": "f",
          "case": "acc"
        }
      ]
    },
    {
      "latin": "eorundem",
      "parts": [
        {
          "number": "p",
          "gender": "m",
          "case": "gen"
        },
        {
          "number": "p",
          "gender": "n",
          "case": "gen"
        }
      ]
    },
    {
      "latin": "earundem",
      "parts": [
        {
          "number": "p",
          "gender": "f",
          "case": "gen"
        }
      ]
    },
    {
      "latin": "eisdem",
      "parts": [
        {
          "number": "p",
          "gender": "m",
          "case": "dat"
        },
        {
          "number": "p",
          "gender": "f",
          "case": "dat"
        },
        {
          "number": "p",
          "gender": "n",
          "case": "dat"
        },
        {
          "number": "p",
          "gender": "m",
          "case": "abl"
        },
        {
          "number": "p",
          "gender": "f",
          "case": "abl"
        },
        {
          "number": "p",
          "gender": "n",
          "case": "abl"
        }
      ]
    }
  ],
  "quidam": [
    {
      "latin": "quidam",
      "parts": [
        {
          "number": "s",
          "gender": "m",
          "case": "nom"
        },
        {
          "number": "p",
          "gender": "m",
          "case": "nom"
        }
      ]
    },
    {
      "latin": "quaedam",
      "parts": [
        {
          "number": "s",
          "gender": "f",
          "case": "nom"
        },
        {
          "number": "p",
          "gender": "f",
          "case": "nom"
        },
        {
          "number": "p",
          "gender": "n",
          "case": "nom"
        },
        {
          "number": "p",
          "gender": "n",
          "case": "acc"
        }
      ]
    },
    {
      "latin": "quoddam",
      "parts": [
        {
          "number": "s",
          "gender": "n",
          "case": "nom"
        },
        {
          "number": "s",
          "gender": "n",
          "case": "acc"
        }
      ]
    },
    {
      "latin": "quendam",
      "parts": [
        {
          "number": "s",
          "gender": "m",
          "case": "acc"
        }
      ]
    },
    {
      "latin": "quandam",
      "parts": [
        {
          "number": "s",
          "gender": "f",
          "case": "acc"
        }
      ]
    },
    {
      "latin": "cuiusdam",
      "parts": [
        {
          "number": "s",
          "gender": "m",
          "case": "gen"
        },
        {
          "number": "s",
          "gender": "f",
          "case": "gen"
        },
        {
          "number": "s",
          "gender": "n",
          "case": "gen"
        }
      ]
    },
    {
      "latin": "cuidam",
      "parts": [
        {
          "number": "s",
          "gender": "m",
          "case": "dat"
        },
        {
          "number": "s",
          "gender": "f",
          "case": "dat"
        },
        {
          "number": "s",
          "gender": "n",
          "case": "dat"
        }
      ]
    },
    {
      "latin": "quodam",
      "parts": [
        {
          "number": "s",
          "gender": "m",
          "case": "abl"
        },
        {
          "number": "s",
          "gender": "n",
          "case": "abl"
        }
      ]
    },
    {
      "latin": "quadam",
      "parts": [
        {
          "number": "s",
          "gender": "f",
          "case": "abl"
        }
      ]
    },
    {
      "latin": "quosdam",
      "parts": [
        {
          "number": "p",
          "gender": "m",
          "case": "acc"
        }
      ]
    },
    {
      "latin": "quasdam",
      "parts": [
        {
          "number": "p",
          "gender": "f",
          "case": "acc"
        }
      ]
    },
    {
      "latin": "quorundam",
      "parts": [
        {
          "number": "p",
          "gender": "m",
          "case": "gen"
        },
        {
          "number": "p",
          "gender": "n",
          "case": "gen"
        }
      ]
    },
    {
      "latin": "quarundam",
      "parts": [
        {
          "number": "p",
          "gender": "f",
          "case": "gen"
        }
      ]
    },
    {
      "latin": "quibusdam",
      "parts": [
        {
          "number": "p",
          "gender": "m",
          "case": "dat"
        },
        {
          "number": "p",
          "gender": "f",
          "case": "dat"
        },
        {
          "number": "p",
          "gender": "n",
          "case": "dat"
        },
        {
          "number": "p",
          "gender": "m",
          "case": "abl"
        },
        {
          "number": "p",
          "gender": "f",
          "case": "abl"
        },
        {
          "number": "p",
          "gender": "n",
          "case": "abl"
        }
      ]
    }
  ]
}
