qui,quae,quod
quem,quam,quod
cuius,cuius,cuius
cui,cui,cui
quo,qua,quo
qui,quae,quae
quos,quas,quae
quorum,quarum,quorum
quibus,quibus,quibus
quibus,quibus,quibus
ego,tu
me,te,se
mei,tui,sui
mihi,tibi,sibi
me,te,se
nos,vos
nos,vos,se
nostrum,vestrum,sui
nobis,vobis,sibi
nobis,vobis,se
is,ea,id
eum,eam,id
eius,eius,eius
ei,ei,ei
eo,ea,eo
ei,eae,ea
eos,eas,ea
eorum,earum,eorum
eis,eis,eis
eis,eis,eis
hic,haec,hoc
hunc,hanc,hoc
huius,huius,huius
huic,huic,huic
hoc,hac,hoc
hi,hae,haec
hos,has,haec
horum,harum,horum
his,his,his
his,his,his
ille,illa,illud
illum,illam,illud
illius,illius,illius
illi,illi,illi
illo,illa,illo
illi,illae,illa
illos,illas,illa
illorum,illarum,illorum
illis,illis,illis
illis,illis,illis
ipse,ipsa,ipsum
ipsum,ipsam,ipsum
ipsius,ipsius,ipsius
ipsi,ipsi,ipsi
ipso,ipsa,ipso
ipsi,ipsae,ipsa
ipsos,ipsas,ipsa
ipsorum,ipsarum,ipsorum
ipsis,ipsis,ipsis
ipsis,ipsis,ipsis
idem,eadem,idem
eundem,eandem,idem
eiusdem,eiusdem,eiusdem
eidem,eidem,eidem
eodem,eadem,eodem
eidem,eaedem,eadem
eosdem,easdem,eadem
eorundem,earundem,eorundem
eisdem,eisdem,eisdem
eisdem,eisdem,eisdem
quidam,quaedam,quoddam
quendam,quandam,quoddam
cuiusdam,cuiusdam,cuiusdam
cuidam,cuidam,cuidam
quodam,quadam,quodam
quidam,quaedam,quaedam
quosdam,quasdam,quaedam
quorundam,quarundam,quorundam
quibusdam,quibusdam,quibusdam
quibusdam,quibusdam,quibusdam
